[
  {
    "model": "datasets.Dataset",
    "pk": 9,
    "fields": {
      "key": "debatrua",
      "label": "Debat RUA (french)",
      "description": "Projection des propositions du débat du Revenu Universel d'Activité",
      "about_description": "",
      "analysed_on": "2020-10-26T14:58:39.058743Z",
      "tiled_on": "2020-10-28T15:06:00.215983Z",
      "max_zoom": 5,
      "metadata": "{\"coords_range\": [-10,10]}",
      "working": false,
      "url": "https://zenodo.org/record/5718514/files/export.feather",
      "version": "1.0.0"
    }
  },
  {
    "model": "datasets.Nature",
    "pk": 91,
    "fields": {
      "key": "prop",
      "label": "Proposition",
      "checked": true,
      "layer": true,
      "limit": 20,
      "color": "pink",
      "icon": "subject",
      "tooltip": "Propositions",
      "layer_tooltip": "Propositions",
      "dataset": 9
    }
  },
  {
    "model": "datasets.Nature",
    "pk": 92,
    "fields": {
      "key": "avispositif",
      "label": "Avis+Positif",
      "checked": true,
      "layer": true,
      "limit": 20,
      "color": "green",
      "icon": "exposure_plus_1",
      "tooltip": "Avis Positifs",
      "layer_tooltip": "Avis Positifs",
      "dataset": 9
    }
  },
  {
    "model": "datasets.Nature",
    "pk": 93,
    "fields": {
      "key": "avisnegatif",
      "label": "Avis-Negatif",
      "checked": true,
      "layer": true,
      "limit": 20,
      "color": "red",
      "icon": "exposure_neg_1",
      "tooltip": "Avis Negatifs",
      "dataset": 9
    }
  },
  {
    "model": "datasets.Nature",
    "pk": 94,
    "fields": {
      "key": "words",
      "label": "Mots",
      "checked": true,
      "layer": false,
      "limit": 5,
      "color": "blue",
      "icon": "font_download",
      "tooltip": "Mots",
      "dataset": 9
    }
  },
  {
    "model": "datasets.Nature",
    "pk": 95,
    "fields": {
      "key": "question",
      "label": "Question",
      "checked": true,
      "layer": false,
      "limit": 10,
      "color": "purple",
      "icon": "help_outline",
      "tooltip": "Thèmes officiels du site",
      "layer_tooltip": "Thèmes",
      "dataset": 9
    }
  },
  {
    "model": "datasets.Nature",
    "pk": 96,
    "fields": {
      "key": "theme",
      "label": "Theme",
      "checked": true,
      "layer": false,
      "limit": 10,
      "color": "cyan",
      "icon": "functions",
      "tooltip": "Thèmes extraits par analyse automatique",
      "dataset": 9
    }
  },
  {
    "model": "datasets.ExtraField",
    "pk": 901,
    "fields": {
      "label": "Reponse à:",
      "key": "words_freq",
      "tooltip": null,
      "nature": 92
    }
  },
  {
    "model": "datasets.ExtraField",
    "pk": 902,
    "fields": {
      "label": "Reponse à:",
      "key": "words_freq",
      "tooltip": null,
      "nature": 93
    }
  },
  {
    "model": "datasets.ExtraField",
    "pk": 903,
    "fields": {
      "label": "Nb propositions:",
      "key": "words_freq",
      "tooltip": null,
      "nature": 94
    }
  },
  {
    "model": "datasets.GroupFilter",
    "pk": 9001,
    "fields": {
      "key": "words",
      "label": "Mots",
      "natures": "words",
      "type": "ID",
      "multi": true,
      "min_size": 1,
      "dataset": 9
    }
  },
  {
    "model": "datasets.GroupFilter",
    "pk": 9002,
    "fields": {
      "key": "prop",
      "label": "Propositions",
      "natures": "prop",
      "type": "ID",
      "multi": false,
      "min_size": 1,
      "dataset": 9
    }
  },
  {
    "model": "datasets.GroupFilter",
    "pk": 9003,
    "fields": {
      "key": "avispositif",
      "label": "Avis+Positif",
      "natures": "avispositif",
      "type": "ID",
      "multi": false,
      "min_size": 1,
      "dataset": 9
    }
  },
  {
    "model": "datasets.GroupFilter",
    "pk": 9004,
    "fields": {
      "key": "avisnegatif",
      "label": "Avis-Negatif",
      "natures": "avisnegatif",
      "type": "ID",
      "multi": false,
      "min_size": 1,
      "dataset": 9
    }
  },
  {
    "model": "datasets.GroupFilter",
    "pk": 9005,
    "fields": {
      "key": "question",
      "label": "Question",
      "natures": "question",
      "type": "ID",
      "multi": false,
      "min_size": 1,
      "dataset": 9
    }
  },
  {
    "model": "datasets.GroupFilter",
    "pk": 9006,
    "fields": {
      "key": "theme",
      "label": "Theme",
      "natures": "theme",
      "type": "ID",
      "multi": false,
      "min_size": 1,
      "dataset": 9
    }
  }
]
