[
  {
    "model": "datasets.Dataset",
    "pk": 2,
    "fields": {
      "key": "lisn",
      "label": "LISN",
      "description": "Projection of entities connected to LISN",
      "about_description": "Cartolabe LISN 2000-2022 dataset is generated using <a href=\"https://gitlab.inria.fr/cartolabe/cartolabe-data\">cartolabe-data</a> with the data extracted from the <a href=\"https://hal.archives-ouvertes.fr\">HAL open archive</a> which stores scholarly documents from all academic fields. We've filtered this dataset to include all articles published by authors from <a href=\"https://www.universite-paris-saclay.fr/en/news/lisn-new-digital-science-laboratory-paris-saclay\">LISN</a> (Laboratoire Interdisciplinaire des Sciences du Numérique), <a href=\"https://www.lri.fr/index_en.php?lang=EN\">LRI</a> (Laboratoire de Recherche en Informatique) and <a href=\"https://www.limsi.fr/fr/\">LIMSI</a> (Laboratoire d'Informatique pour la Mécanique et les Sciences de l'Ingénieur) between 2000 and 2022.",
      "analysed_on": "2018-09-12T09:08:57.299710Z",
      "tiled_on": "2018-08-30T11:46:48.045351Z",
      "max_zoom": 8,
      "metadata": "{\"coords_range\": [-17,17], \"base_url\": \"https://hal.archives-ouvertes.fr\"}",
      "working": false,
      "url": "https://zenodo.org/record/7323538/files/export.feather",	
      "version": "2.0.0"
    }
  },
  {
    "model": "datasets.Nature",
    "pk": 21,
    "fields": {
      "key": "authors",
      "label": "Authors",
      "checked": true,
      "layer": true,
      "limit": 40,
      "color": "#c50e29",
      "icon": "person",
      "tooltip": "Authors are shown as white text with a red dot and border",
      "layer_tooltip": "The density of authors is shown as red dots in the background",
      "dataset": 2
    }
  },
  {
    "model": "datasets.Nature",
    "pk": 22,
    "fields": {
      "key": "articles",
      "label": "Articles",
      "checked": true,
      "layer": true,
      "limit": 5,
      "color": "#1976d2",
      "icon": "subject",
      "tooltip": "Articles are shown as white text with a blue dot and border",
      "layer_tooltip": "The density of articles is shown as blue dots in the background",
      "dataset": 2
    }
  },
  {
    "model": "datasets.Nature",
    "pk": 23,
    "fields": {
      "key": "labs",
      "label": "Labs",
      "checked": true,
      "layer": false,
      "limit": 15,
      "color": "#009624",
      "icon": "domain",
      "tooltip": "Labs are shown as white text with a green dot and border",
      "dataset": 2
    }
  },
  {
    "model": "datasets.Nature",
    "pk": 24,
    "fields": {
      "key": "teams",
      "label": "Teams",
      "checked": true,
      "layer": false,
      "limit": 10,
      "color": "#c67100",
      "icon": "group",
      "tooltip": "Teams are shown as white text with a brown dot and border",
      "dataset": 2
    }
  },
  {
    "model": "datasets.Nature",
    "pk": 25,
    "fields": {
      "key": "words",
      "label": "Words",
      "checked": true,
      "layer": false,
      "limit": 0,
      "color": "#aa00c7",
      "icon": "font_download",
      "tooltip": "Words are shown as white text with a purple dot and border",
      "dataset": 2
    }
  },
  {
    "model": "datasets.ExtraField",
    "pk": 201,
    "fields": {
      "label": "Published",
      "key": "year",
      "tooltip": null,
      "nature": 22
    }
  },
  {
    "model": "datasets.ExtraField",
    "pk": 202,
    "fields": {
      "label": "IdHal",
      "key": "url",
      "tooltip": null,
      "nature": 22
    }
  },
  {
    "model": "datasets.GroupFilter",
    "pk": 2001,
    "fields": {
      "key": "year",
      "label": "Year",
      "type": "IN",
      "multi": true,
      "min_size": 0,
      "dataset": 2
    }
  },
  {
    "model": "datasets.GroupFilter",
    "pk": 2002,
    "fields": {
      "key": "labs",
      "label": "Lab",
      "natures": "labs,teams",
      "type": "ID",
      "multi": true,
      "min_size": 1,
      "dataset": 2
    }
  },
    {
    "model": "datasets.GroupFilter",
    "pk": 2003,
    "fields": {
      "key": "words",
      "label": "Words",
      "natures": "words",
      "type": "ID",
      "multi": false,
      "min_size": 1,
      "dataset": 2
    }
  },
  {
    "model": "datasets.GroupFilter",
    "pk": 2004,
    "fields": {
      "key": "authors",
      "label": "Authors",
      "natures": "authors",
      "type": "ID",
      "multi": false,
      "min_size": 10,
      "dataset": 2
    }
  }

]
