[
  {
    "model": "datasets.Dataset",
    "pk": 8,
    "fields": {
      "key": "software",
      "label": "Software Heritage",
	"description": "Projects archived by Software Heritage",
	"about_description": "The Software Heritage dataset shows projects that are collected by the <a href=\"https://www.softwareheritage.org/\">Software Heritage</a> archive initiative. Text data for each software comes from the project's description on github.",
	"analysed_on": "2019-06-12T14:38:50.229388Z",
      "tiled_on": "2019-06-12T15:05:23.179167Z",
      "max_zoom": 9,
      "metadata": "{\"coords_range\": [-20,20]}",
      "working": false,
      "url": "https://zenodo.org/record/5718541/files/export.feather",
      "version": "1.0.0"
    }
  },
  {
    "model": "datasets.Nature",
    "pk": 81,
    "fields": {
      "key": "softwares",
      "label": "Softwares",
      "checked": true,
      "layer": true,
      "limit": 60,
      "color": "#c50e29",
      "icon": "memory",
	"tooltip": "Softwares are shown as white text with a red dot and border",
	"layer_tooltip": "The density of softwares is shown as red dots in the background",
      "dataset": 8
    }
  },
  {
    "model": "datasets.Nature",
    "pk": 82,
    "fields": {
      "key": "tags",
      "label": "Tags",
      "checked": true,
      "layer": false,
      "limit": 20,
      "color": "#009624",
      "icon": "label",
	"tooltip": "Tags are shown as white text with a green dot and border",
      "dataset": 8
    }
  },
  {
    "model": "datasets.Nature",
    "pk": 83,
    "fields": {
      "key": "words",
      "label": "Words",
      "checked": true,
      "layer": false,
      "limit": 5,
      "color": "#aa00c7",
      "icon": "font_download",
	"tooltip": "Words are shown as white text with a purple dot and border",
      "dataset": 8
    }
  },
  {
    "model": "datasets.GroupFilter",
    "pk": 8001,
    "fields": {
      "key": "tags",
	"label": "Tag",
	"natures": "tags",
      "type": "ID",
      "multi": true,
      "min_size": 1,
      "dataset": 8
    }
  }
]
